…
## All types of dependencies, in a data frame

The example dataset `cran_dependencies` contains all dependencies as of
2020-05-09.

``` r
data(cran_dependencies)
cran_dependencies
#> # A tibble: 211,381 x 4
#>    from  to             type     reverse
#>    <chr> <chr>          <chr>    <lgl>  
#>  1 A3    xtable         depends  FALSE  
#>  2 A3    pbapply        depends  FALSE  
#>  3 A3    randomForest   suggests FALSE  
#>  4 A3    e1071          suggests FALSE  
#>  5 aaSEA DT             imports  FALSE  
#>  6 aaSEA networkD3      imports  FALSE  
#>  7 aaSEA shiny          imports  FALSE  
#>  8 aaSEA shinydashboard imports  FALSE  
#>  9 aaSEA magrittr       imports  FALSE  
#> 10 aaSEA Bios2cor       imports  FALSE  
#> # … with 211,371 more rows
…
